{
    "/public/packages/editorjs/editor.js": "/public/packages/editorjs/editor.js",
    "/public/packages/editorjs/editor.js.LICENSE.txt": "/public/packages/editorjs/editor.js.LICENSE.txt",
    "/public/packages/editorjs/editor.licenses.txt": "/public/packages/editorjs/editor.licenses.txt",
    "/public/packages/editorjs/sprite.svg": "/public/packages/editorjs/sprite.svg",
    "/public/packages/editorjs/tools/header.js": "/public/packages/editorjs/tools/header.js",
    "/public/packages/editorjs/tools/list.js": "/public/packages/editorjs/tools/list.js",
    "/public/packages/editorjs/tools/table.js": "/public/packages/editorjs/tools/table.js",
    "/public/packages/editorjs/tools/table2.js": "/public/packages/editorjs/tools/table2.js",
    "/public/packages/editorjs/tools/hyperlink.js": "/public/packages/editorjs/tools/hyperlink.js",
    "/public/packages/editorjs/tools/embed.js": "/public/packages/editorjs/tools/embed.js",
    "/public/packages/editorjs/tools/simple-image.js": "/public/packages/editorjs/tools/simple-image.js",
    "/public/packages/cropperjs/dist/cropper.common.js": "/public/packages/cropperjs/dist/cropper.common.js",
    "/public/packages/cropperjs/dist/cropper.css": "/public/packages/cropperjs/dist/cropper.css",
    "/public/packages/cropperjs/dist/cropper.esm.js": "/public/packages/cropperjs/dist/cropper.esm.js",
    "/public/packages/cropperjs/dist/cropper.js": "/public/packages/cropperjs/dist/cropper.js",
    "/public/packages/cropperjs/dist/cropper.min.css": "/public/packages/cropperjs/dist/cropper.min.css",
    "/public/packages/cropperjs/dist/cropper.min.js": "/public/packages/cropperjs/dist/cropper.min.js",
    "/public/packages/jsbarcode/dist/JsBarcode.all.js": "/public/packages/jsbarcode/dist/JsBarcode.all.js",
    "/public/packages/jsbarcode/dist/JsBarcode.all.min.js": "/public/packages/jsbarcode/dist/JsBarcode.all.min.js",
    "/public/packages/jsbarcode/dist/barcodes/JsBarcode.codabar.min.js": "/public/packages/jsbarcode/dist/barcodes/JsBarcode.codabar.min.js",
    "/public/packages/jsbarcode/dist/barcodes/JsBarcode.code128.min.js": "/public/packages/jsbarcode/dist/barcodes/JsBarcode.code128.min.js",
    "/public/packages/jsbarcode/dist/barcodes/JsBarcode.code39.min.js": "/public/packages/jsbarcode/dist/barcodes/JsBarcode.code39.min.js",
    "/public/packages/jsbarcode/dist/barcodes/JsBarcode.ean-upc.min.js": "/public/packages/jsbarcode/dist/barcodes/JsBarcode.ean-upc.min.js",
    "/public/packages/jsbarcode/dist/barcodes/JsBarcode.itf.min.js": "/public/packages/jsbarcode/dist/barcodes/JsBarcode.itf.min.js",
    "/public/packages/jsbarcode/dist/barcodes/JsBarcode.msi.min.js": "/public/packages/jsbarcode/dist/barcodes/JsBarcode.msi.min.js",
    "/public/packages/jsbarcode/dist/barcodes/JsBarcode.pharmacode.min.js": "/public/packages/jsbarcode/dist/barcodes/JsBarcode.pharmacode.min.js",
    "/public/packages/imask.js": "/public/packages/imask.js"
}
